# Blender v2.78 (sub 0) OBJ File: 'Transit_Modell_Export.blend'
# www.blender.org
mtllib huelle.mtl
o Z_Buffer_hide_Plane.001
v 2.140065 0.231318 -0.790392
v 2.130443 0.325032 -0.649311
v 2.130443 0.324659 -0.676867
v 2.130443 0.341789 -0.707901
v 2.130443 0.344520 -0.728755
v 2.130443 0.349734 -0.743899
v 2.130443 0.358671 -0.754575
v 2.130443 0.370836 -0.762768
v 2.130443 0.383995 -0.767236
v 2.130443 0.401125 -0.768229
v 2.130443 0.410807 -0.770216
v 2.130443 0.418255 -0.777664
v 2.130443 0.425952 -0.782381
v 2.130443 0.432903 -0.784119
v 2.130443 0.589063 -0.784119
v 1.995383 0.401125 -0.768229
v 1.995383 0.383995 -0.767236
v 1.995383 0.370836 -0.762768
v 1.995383 0.358671 -0.754575
v 1.995383 0.349734 -0.743899
v 1.995383 0.344520 -0.728755
v 1.995383 0.341789 -0.707901
v 1.995383 0.324659 -0.676867
v 1.995383 0.325032 -0.649311
v 2.140065 0.231726 -0.757249
v 2.130443 0.325032 -0.399446
v 2.130443 2.325719 -0.141059
v 2.130443 2.321633 -0.287206
v 2.130443 2.317076 -0.387780
v 2.130443 2.310004 -0.489140
v 2.130443 2.304568 -0.550022
v 2.130443 2.292563 -0.631895
v 2.130443 2.283833 -0.656449
v 2.130443 2.274011 -0.677184
v 2.130443 2.255459 -0.697373
v 2.130443 2.230359 -0.714288
v 2.130443 2.203077 -0.721381
v 2.130443 2.055751 -0.744845
v 2.130443 1.952703 -0.761201
v 2.130443 1.842481 -0.777025
v 2.130443 1.755723 -0.784119
v 1.995383 0.410807 -0.770216
v 1.995383 0.418255 -0.777664
v 1.995383 0.425952 -0.782381
v 1.995383 0.432903 -0.784119
v 1.995383 0.589063 -0.784119
v 1.995383 0.325032 -0.399446
v 1.995383 2.325719 -0.141059
v 1.995383 2.321633 -0.287206
v 1.995383 2.317076 -0.387780
v 1.995383 2.310004 -0.489140
v 1.995383 2.304568 -0.550022
v 1.995383 2.292563 -0.631895
v 1.995383 2.283833 -0.656449
v 1.995383 2.274011 -0.677184
v 1.995383 2.255459 -0.697373
v 1.995383 2.230359 -0.714288
v 1.995383 2.203077 -0.721381
v 1.995383 2.055751 -0.744845
v 1.995383 1.952703 -0.761201
v 1.995383 1.842481 -0.777025
v 1.995383 1.755723 -0.784119
v 2.140065 0.250012 -0.827715
v 2.140065 0.252992 -0.852797
v 2.140065 0.258681 -0.871011
v 2.140065 0.268434 -0.883850
v 2.140065 0.281710 -0.893704
v 2.140065 0.296068 -0.899078
v 2.140065 0.314762 -0.900273
v 2.140065 0.325328 -0.902661
v 2.140065 0.333455 -0.911619
v 2.140065 0.341854 -0.917292
v 2.140065 0.349440 -0.919382
v 2.140065 0.519849 -0.919382
v 2.140065 0.231726 -0.456737
v 2.140065 2.475161 -0.145975
v 2.140065 2.470702 -0.321746
v 2.140065 2.465729 -0.442707
v 2.140065 2.458012 -0.564613
v 2.140065 2.452080 -0.637836
v 2.140065 2.438980 -0.736303
v 2.140065 2.429453 -0.765835
v 2.140065 2.418735 -0.790772
v 2.140065 2.398490 -0.815053
v 2.140065 2.371100 -0.835397
v 2.140065 2.341328 -0.843929
v 2.140065 2.133116 -0.878520
v 2.140065 2.006327 -0.898192
v 2.140065 1.887641 -0.910851
v 2.140065 1.792966 -0.919382
v 0.682249 1.792966 -0.919382
v 0.682249 1.887641 -0.910851
v 0.682249 2.133116 -0.878520
v 0.638869 2.216611 -0.860704
v 0.617846 2.262442 -0.848836
v 0.602771 2.290648 -0.838255
v 0.578467 2.337253 -0.828397
v 0.682249 2.429453 -0.765835
v 0.682249 2.438980 -0.736303
v 0.682249 0.231726 -0.456737
v 0.682249 0.591819 -0.919382
v 0.674266 0.377635 -0.926839
v 0.672479 0.328582 -0.926843
v 0.678700 0.309370 -0.922586
v 0.722924 0.311603 -0.912066
v 0.690739 0.295192 -0.914339
v 0.726101 0.289919 -0.905869
v 0.690830 0.275317 -0.907768
v 0.723542 0.268142 -0.892493
v 0.681050 0.259863 -0.889244
v 0.682249 0.252992 -0.852797
v 0.682249 0.250012 -0.827715
v 0.682249 0.231726 -0.757249
v 0.682249 0.231318 -0.790392
v 0.682249 2.006327 -0.898192
v 0.537134 0.312720 -0.828589
v 0.532380 0.283668 -0.828589
v 0.517589 0.259369 -0.828589
v 0.494347 0.245107 -0.828589
v 0.477443 0.241409 -0.828589
v -0.713191 0.241409 -0.828589
v -0.772113 0.312720 -0.828589
v -0.768127 0.283668 -0.828589
v -0.753337 0.259369 -0.828589
v -0.730095 0.245107 -0.828589
v -0.772113 1.835369 -0.789442
v -0.755233 1.896561 -0.783060
v -0.730967 1.945092 -0.778515
v -0.686655 1.991514 -0.774225
v -0.640234 2.020000 -0.771508
v -0.583262 2.036880 -0.769511
v -0.549501 2.040045 -0.768824
v -0.495695 2.040045 -0.768410
v 0.259947 2.040045 -0.768410
v -0.772113 1.454707 -0.828589
v -0.772113 1.074045 -0.828589
v -0.772113 0.693383 -0.828589
v 0.536365 1.835369 -0.789442
v 0.519485 1.896561 -0.783060
v 0.495219 1.945092 -0.778515
v 0.450908 1.991514 -0.774225
v 0.404486 2.020000 -0.771508
v 0.347515 2.036880 -0.769511
v 0.313753 2.040045 -0.768824
v 0.537134 0.312720 -0.943213
v 0.536365 1.454707 -0.828589
v 0.536365 1.074045 -0.828589
v 0.536365 0.693383 -0.828589
v 0.532380 0.283668 -0.943213
v 0.517589 0.259369 -0.943213
v 0.494347 0.245107 -0.943213
v 0.477443 0.241409 -0.943213
v -0.713191 0.241409 -0.943213
v -0.772113 0.312720 -0.943213
v -0.768127 0.283668 -0.943213
v -0.753337 0.259369 -0.943213
v -0.730095 0.245107 -0.943213
v -0.772113 1.835369 -0.904066
v -0.755233 1.896561 -0.897683
v -0.730967 1.945092 -0.893139
v -0.686655 1.991514 -0.888849
v -0.640234 2.020000 -0.886132
v -0.583262 2.036880 -0.884135
v -0.549501 2.040045 -0.883448
v -0.495695 2.040045 -0.883034
v 0.259947 2.040045 -0.883034
v -0.772113 1.454707 -0.943213
v -0.772113 1.074045 -0.943213
v -0.772113 0.693383 -0.943213
v 0.536365 1.835369 -0.904066
v 0.519485 1.896561 -0.897683
v 0.495219 1.945092 -0.893139
v 0.450908 1.991514 -0.888849
v 0.404486 2.020000 -0.886132
v 0.347515 2.036880 -0.884135
v 0.313753 2.040045 -0.883448
v 0.536365 1.454707 -0.943213
v 0.536365 1.074045 -0.943213
v 0.536365 0.693383 -0.943213
v 0.579845 0.258697 -0.830553
v 0.574781 0.227748 -0.830553
v 0.559025 0.201864 -0.830553
v 0.534267 0.186671 -0.830553
v 0.516260 0.182733 -0.830553
v -0.752058 0.182733 -0.830553
v -0.814824 0.258697 -0.830553
v -0.810579 0.227748 -0.830553
v -0.794823 0.201864 -0.830553
v -0.770065 0.186671 -0.830553
v -0.814824 1.880692 -0.788851
v -0.796842 1.945876 -0.782052
v -0.770994 1.997574 -0.777211
v -0.723791 2.047024 -0.772641
v -0.674341 2.077368 -0.769747
v -0.613652 2.095350 -0.767620
v -0.577688 2.098722 -0.766888
v -0.520371 2.098722 -0.766447
v 0.284573 2.098722 -0.766447
v -0.814824 1.475193 -0.830553
v -0.814824 1.069694 -0.830553
v -0.814824 0.664195 -0.830553
v 0.579026 1.880692 -0.788851
v 0.561045 1.945876 -0.782052
v 0.535196 1.997574 -0.777211
v 0.487993 2.047024 -0.772641
v 0.438543 2.077368 -0.769747
v 0.377854 2.095350 -0.767620
v 0.341890 2.098722 -0.766888
v 0.579026 1.475193 -0.830553
v 0.579026 1.069694 -0.830553
v 0.579026 0.664195 -0.830553
v 1.995383 1.442211 -0.784119
v 2.130443 1.442211 -0.784119
v 2.140065 1.450846 -0.919382
v 0.682249 1.450846 -0.919382
v 1.995383 1.083055 -0.784119
v 2.130443 1.083055 -0.784119
v 2.140065 1.058918 -0.919382
v 0.682249 1.058918 -0.919382
v 0.804283 2.458012 -0.564613
v 0.804283 1.792966 -0.919382
v 0.804283 1.887641 -0.910851
v 0.804283 0.519849 -0.919382
v 0.804283 0.349440 -0.919382
v 0.804283 0.341854 -0.917292
v 0.804283 0.333455 -0.911619
v 0.804283 0.325328 -0.902661
v 0.804283 0.314762 -0.900273
v 0.804283 0.296068 -0.899078
v 0.804283 2.429453 -0.765835
v 0.804283 0.231318 -0.790392
v 0.804283 2.475161 -0.145975
v 0.804283 2.371100 -0.835397
v 0.804283 2.341328 -0.843929
v 0.804283 2.398490 -0.815053
v 0.804283 2.418735 -0.790772
v 0.804283 2.438980 -0.736303
v 0.804283 0.250012 -0.827715
v 0.804283 0.281710 -0.893704
v 0.804283 2.452080 -0.637836
v 0.804283 0.268434 -0.883850
v 0.804283 2.470702 -0.321746
v 0.804283 2.465729 -0.442707
v 0.804283 0.252992 -0.852797
v 0.804283 0.231726 -0.456737
v 0.804283 0.258681 -0.871011
v 0.804283 0.231726 -0.757249
v 0.804283 2.133116 -0.878520
v 0.804283 2.006327 -0.898192
v 0.804283 1.450846 -0.919382
v 0.804283 1.058918 -0.919382
v 0.435856 2.405323 -0.812638
v 0.433785 2.429453 -0.765835
v 0.433785 2.438980 -0.736303
v 0.267174 2.418735 -0.790772
v 0.267174 2.429453 -0.765835
v 0.267174 2.438980 -0.736303
v -0.495695 2.418735 -0.790772
v -0.495695 2.429453 -0.765835
v -0.495695 2.438980 -0.736303
v -0.994039 2.418735 -0.790772
v -0.994039 2.429453 -0.765835
v -0.994039 2.438980 -0.736303
v -1.089313 1.835369 -0.904066
v -1.089313 2.418735 -0.790772
v -1.089313 2.429453 -0.765835
v -1.089313 2.438980 -0.736303
v -1.089313 1.454707 -0.943213
v -1.089313 1.074045 -0.943213
v -1.089313 0.693383 -0.943213
v -1.089313 0.312720 -0.943213
v -1.944447 1.835369 -0.904066
v -1.944447 2.418735 -0.790772
v -1.944447 2.429453 -0.765835
v -1.944447 2.438980 -0.736303
v -1.944447 1.454707 -0.943213
v -1.944447 1.074045 -0.943213
v -1.944447 0.693383 -0.943213
v -1.944447 0.312720 -0.943213
v -1.085327 0.283668 -0.943213
v -1.054535 0.200453 -0.943213
v -0.921462 0.112718 -0.943213
v -0.715349 0.107116 -0.943213
v 0.475286 0.107116 -0.943213
v -1.940461 0.283668 -0.943213
v -1.909669 0.200453 -0.943213
v -1.776597 0.112718 -0.943213
v -0.921462 0.112718 -0.471607
v -1.776597 0.112718 -0.471607
v 0.475286 0.107116 -0.471607
v -0.715349 0.107116 -0.471607
v -1.776597 0.112718 -0.799381
v -0.715349 0.107116 -0.799381
v -0.921462 0.112718 -0.799381
v 0.475286 0.107116 -0.799381
v 2.140065 0.231318 0.790392
v 2.130443 0.325032 0.649311
v 2.130443 0.324659 0.676867
v 2.130443 0.341789 0.707901
v 2.130443 0.344520 0.728755
v 2.130443 0.349734 0.743899
v 2.130443 0.358671 0.754575
v 2.130443 0.370836 0.762768
v 2.130443 0.383995 0.767236
v 2.130443 0.401125 0.768229
v 2.130443 0.410807 0.770216
v 2.130443 0.418255 0.777664
v 2.130443 0.425952 0.782381
v 2.130443 0.432903 0.784119
v 2.130443 0.589063 0.784119
v 1.995383 0.401125 0.768229
v 1.995383 0.383995 0.767236
v 1.995383 0.370836 0.762768
v 1.995383 0.358671 0.754575
v 1.995383 0.349734 0.743899
v 1.995383 0.344520 0.728755
v 1.995383 0.341789 0.707901
v 1.995383 0.324659 0.676867
v 1.995383 0.325032 0.649311
v 2.140065 0.231726 0.757249
v 2.130443 0.325032 0.000000
v 2.130443 0.325032 0.399446
v 2.130443 2.325719 0.000000
v 2.130443 2.325719 0.141059
v 2.130443 2.321633 0.287206
v 2.130443 2.317076 0.387780
v 2.130443 2.310004 0.489140
v 2.130443 2.304568 0.550022
v 2.130443 2.292563 0.631895
v 2.130443 2.283833 0.656449
v 2.130443 2.274011 0.677184
v 2.130443 2.255459 0.697373
v 2.130443 2.230359 0.714288
v 2.130443 2.203077 0.721381
v 2.130443 2.055751 0.744845
v 2.130443 1.952703 0.761201
v 2.130443 1.842481 0.777025
v 2.130443 1.755723 0.784119
v 1.995383 0.410807 0.770216
v 1.995383 0.418255 0.777664
v 1.995383 0.425952 0.782381
v 1.995383 0.432903 0.784119
v 1.995383 0.589063 0.784119
v 1.995383 0.325032 0.000000
v 1.995383 0.325032 0.399446
v 1.995383 2.325719 0.000000
v 1.995383 2.325719 0.141059
v 1.995383 2.321633 0.287206
v 1.995383 2.317076 0.387780
v 1.995383 2.310004 0.489140
v 1.995383 2.304568 0.550022
v 1.995383 2.292563 0.631895
v 1.995383 2.283833 0.656449
v 1.995383 2.274011 0.677184
v 1.995383 2.255459 0.697373
v 1.995383 2.230359 0.714288
v 1.995383 2.203077 0.721381
v 1.995383 2.055751 0.744845
v 1.995383 1.952703 0.761201
v 1.995383 1.842481 0.777025
v 1.995383 1.755723 0.784119
v 2.140065 0.250012 0.827715
v 2.140065 0.252992 0.852797
v 2.140065 0.258681 0.871011
v 2.140065 0.268434 0.883850
v 2.140065 0.281710 0.893704
v 2.140065 0.296068 0.899078
v 2.140065 0.314762 0.900273
v 2.140065 0.325328 0.902661
v 2.140065 0.333455 0.911619
v 2.140065 0.341854 0.917292
v 2.140065 0.349440 0.919382
v 2.140065 0.519849 0.919382
v 2.140065 0.231726 0.000000
v 2.140065 0.231726 0.456737
v 2.140065 2.475161 0.000000
v 2.140065 2.475161 0.145975
v 2.140065 2.470702 0.321746
v 2.140065 2.465729 0.442707
v 2.140065 2.458012 0.564613
v 2.140065 2.452080 0.637836
v 2.140065 2.438980 0.736303
v 2.140065 2.429453 0.765835
v 2.140065 2.418735 0.790772
v 2.140065 2.398490 0.815053
v 2.140065 2.371100 0.835397
v 2.140065 2.341328 0.843929
v 2.140065 2.133116 0.878520
v 2.140065 2.006327 0.898192
v 2.140065 1.887641 0.910851
v 2.140065 1.792966 0.919382
v 1.995383 1.442211 0.784119
v 2.130443 1.442211 0.784119
v 2.140065 1.450846 0.919382
v 1.995383 1.083055 0.784119
v 2.130443 1.083055 0.784119
v 2.140065 1.058918 0.919382
v 0.804283 2.458012 0.564613
v 0.804283 1.792966 0.919382
v 0.804283 0.231726 0.000000
v 0.804283 1.887641 0.910851
v 0.804283 0.519849 0.919382
v 0.804283 0.349440 0.919382
v 0.804283 0.341854 0.917292
v 0.804283 0.333455 0.911619
v 0.804283 0.325328 0.902661
v 0.804283 0.314762 0.900273
v 0.804283 0.296068 0.899078
v 0.804283 2.429453 0.765835
v 0.804283 0.231318 0.790392
v 0.804283 2.475161 0.145975
v 0.804283 2.475161 0.000000
v 0.804283 2.371100 0.835397
v 0.804283 2.341328 0.843929
v 0.804283 2.398490 0.815053
v 0.804283 2.418735 0.790772
v 0.804283 2.438980 0.736303
v 0.804283 0.250012 0.827715
v 0.804283 0.281710 0.893704
v 0.804283 2.452080 0.637836
v 0.804283 0.268434 0.883850
v 0.804283 2.470702 0.321746
v 0.804283 2.465729 0.442707
v 0.804283 0.252992 0.852797
v 0.804283 0.231726 0.456737
v 0.804283 0.258681 0.871011
v 0.804283 0.231726 0.757249
v 0.804283 2.133116 0.878520
v 0.804283 2.006327 0.898192
v 0.804283 1.450846 0.919382
v 0.804283 1.058918 0.919382
vn 0.0000 0.3216 0.9469
vn 0.9986 -0.0393 0.0343
vn 0.0000 -0.9996 0.0279
vn 0.0000 0.0000 1.0000
vn 0.0000 -0.7363 0.6766
vn 0.0000 0.2425 0.9701
vn 0.0000 0.5226 0.8526
vn 0.0000 0.7071 0.7071
vn 0.0000 0.8755 0.4833
vn 0.0000 0.2009 0.9796
vn 0.0000 -1.0000 0.0000
vn 0.0000 0.0579 0.9983
vn 0.0000 -0.9976 0.0696
vn 0.0000 0.5586 0.8294
vn 0.0000 1.0000 0.0000
vn 0.0000 -0.0815 0.9967
vn 0.0000 -0.1421 0.9899
vn 0.0000 -0.9894 0.1451
vn 0.0000 -0.1568 0.9876
vn 0.0000 -0.9960 0.0889
vn 0.0000 -0.1573 0.9876
vn 0.0000 0.9999 -0.0136
vn 0.0000 -0.2516 0.9678
vn 0.0000 -0.9990 0.0453
vn 0.0000 -0.5589 0.8293
vn 0.0000 0.9915 0.1298
vn 0.0000 -0.9422 0.3350
vn 0.0000 0.9455 0.3255
vn 0.0000 -0.9037 0.4281
vn 0.0000 0.7668 0.6419
vn 0.9982 0.0352 0.0496
vn 0.9979 -0.0641 0.0017
vn 0.9986 -0.0310 0.0437
vn 0.9980 0.0211 0.0589
vn 0.9981 -0.0164 0.0600
vn 0.9975 0.0043 0.0699
vn 0.9978 -0.0108 0.0659
vn 0.9979 0.0138 0.0637
vn 0.9978 -0.0103 0.0659
vn 0.9980 0.0454 0.0431
vn 0.9977 -0.0084 0.0678
vn 0.9982 0.0328 0.0508
vn 0.9976 -0.0060 0.0695
vn 0.9980 0.0161 0.0611
vn 0.9947 0.1026 0.0000
vn 0.9975 0.0000 0.0710
vn 0.9980 -0.0637 0.0027
vn 0.9980 -0.0629 0.0042
vn 0.9946 0.1041 -0.0013
vn 0.9979 -0.0643 0.0000
vn 0.9981 -0.0621 0.0053
vn 0.9975 0.0624 0.0327
vn 0.9982 -0.0599 0.0083
vn 0.9959 0.0897 0.0112
vn 0.9984 -0.0528 0.0178
vn 0.9971 0.0725 0.0237
vn 0.9985 -0.0492 0.0221
vn 0.9980 0.0499 0.0396
vn -0.0649 0.4350 -0.8981
vn 0.1321 -0.1968 -0.9715
vn 0.0000 0.0897 -0.9960
vn -0.0852 0.6938 -0.7151
vn 0.0000 -0.9930 -0.1180
vn 0.1214 -0.2627 -0.9572
vn 0.0000 0.9517 -0.3070
vn 0.0000 -0.8941 -0.4478
vn 0.0370 0.0186 -0.9991
vn 0.1068 -0.6986 -0.7075
vn 0.0000 -0.9999 0.0123
vn 0.0626 -0.0387 -0.9973
vn 0.0811 -0.7632 -0.6411
vn -0.0181 0.1742 -0.9845
vn 0.1204 -0.3118 -0.9425
vn 0.0120 -0.9745 -0.2242
vn -0.0761 0.2400 -0.9678
vn 0.1971 -0.7201 -0.6653
vn -0.1651 0.4449 -0.8802
vn 0.1480 -0.1807 -0.9723
vn -0.0000 0.0000 -1.0000
vn 0.0000 0.1533 -0.9882
vn 0.0000 0.1061 -0.9944
vn 0.5230 -0.8523 0.0000
vn -0.9869 0.1615 0.0000
vn -1.0000 -0.0020 0.0000
vn 0.2841 -0.9588 0.0000
vn -0.8542 0.5199 0.0000
vn -1.0000 0.0000 0.0000
vn 0.0933 -0.9956 0.0000
vn -0.5230 0.8523 0.0000
vn -0.2137 0.9769 0.0000
vn 1.0000 0.0000 0.0000
vn 0.9907 0.1359 0.0000
vn 0.8542 0.5199 0.0000
vn 0.5230 0.8523 0.0000
vn -0.9640 -0.2659 0.0000
vn 0.2137 0.9769 0.0000
vn -0.8944 -0.4472 0.0000
vn -0.7234 -0.6905 0.0000
vn 0.9640 -0.2659 0.0000
vn -0.5230 -0.8523 0.0000
vn 0.8944 -0.4472 0.0000
vn -0.2841 -0.9588 0.0000
vn 0.7234 -0.6905 0.0000
vn -0.0933 -0.9956 0.0000
vn -0.0773 0.0867 -0.9932
vn -0.0656 0.0927 -0.9935
vn -0.0480 0.1248 -0.9910
vn -0.0290 -0.0479 0.9984
vn 0.0381 -0.0062 0.9993
vn 0.0460 0.0001 0.9989
vn -0.0220 -0.0438 0.9988
vn 0.0257 -0.0156 0.9995
vn 0.0945 -0.1018 0.9903
vn -0.0165 -0.0409 0.9990
vn 0.0145 -0.0237 0.9996
vn 0.0460 0.0000 0.9989
vn -0.0077 -0.0367 0.9993
vn 0.0064 -0.0292 0.9996
vn 0.0000 -0.0334 0.9994
vn 0.0077 -0.0367 0.9993
vn -0.0944 -0.1018 0.9903
vn -0.0391 -0.0054 0.9992
vn -0.0459 0.0000 0.9989
vn -0.0257 -0.0156 0.9995
vn -0.0145 -0.0237 0.9996
vn 0.0745 -0.0831 0.9938
vn -0.0064 -0.0292 0.9996
vn 0.0543 -0.0661 0.9963
vn 0.0393 -0.0547 0.9977
vn -0.0744 -0.0831 0.9938
vn 0.0291 -0.0479 0.9984
vn -0.0543 -0.0662 0.9963
vn 0.0220 -0.0437 0.9988
vn -0.0393 -0.0547 0.9977
vn 0.0165 -0.0409 0.9990
vn -0.0352 0.1529 -0.9876
vn -0.0311 0.1787 -0.9834
vn -0.0674 0.2427 -0.9678
vn -0.0134 0.1937 -0.9810
vn 0.0377 0.0540 -0.9978
vn 0.1612 0.0000 -0.9869
vn 0.1420 0.0107 -0.9898
vn 0.1212 -0.0101 -0.9926
vn 0.1604 -0.1273 -0.9788
vn 0.2250 -0.3401 -0.9131
vn 0.2111 -0.3059 -0.9284
vn 0.1755 -0.7995 -0.5744
vn 0.0000 -0.2205 -0.9754
vn 0.0000 0.9997 -0.0254
vn 0.0000 0.5963 -0.8028
vn 0.0000 0.9992 -0.0411
vn 0.0000 -0.7406 -0.6720
vn 0.0000 0.9980 -0.0632
vn 0.0000 0.2755 -0.9613
vn 0.0000 -0.9545 -0.2982
vn 0.0000 -0.5597 -0.8287
vn 0.0000 0.1639 -0.9865
vn 0.0000 -0.7963 -0.6049
vn 0.0000 -0.2656 -0.9641
vn 0.0000 0.9913 -0.1319
vn 0.0000 0.9967 -0.0808
vn 0.0000 -0.5960 -0.8030
vn 0.0000 -0.3506 -0.9365
vn 0.0000 0.9187 -0.3949
vn 0.0000 -0.0638 -0.9980
vn 0.0000 0.7681 -0.6404
vn 0.1878 -0.8947 -0.4052
vn 0.1310 -0.9764 -0.1717
vn 0.0814 0.6440 -0.7607
vn 0.0075 0.8996 -0.4367
vn -0.0609 0.2171 -0.9742
vn 0.0000 0.2367 -0.9716
vn 0.0007 0.2376 -0.9714
vn -0.0193 0.2179 -0.9758
vn -0.0692 0.1757 -0.9820
vn -0.1240 0.1443 -0.9817
vn 0.0000 0.1906 -0.9817
vn 0.0000 0.1023 -0.9948
vn 0.5795 -0.2009 -0.7898
vn -0.0272 -0.9996 0.0000
vn 0.5158 -0.8567 0.0000
vn 0.5145 -0.8575 0.0020
vn 0.0000 0.3216 -0.9469
vn 0.9986 -0.0393 -0.0343
vn 0.0000 -0.9996 -0.0279
vn 0.0000 -0.7363 -0.6766
vn 0.0000 0.2425 -0.9701
vn 0.0000 0.5226 -0.8526
vn 0.0000 0.7071 -0.7071
vn 0.0000 0.8755 -0.4833
vn 0.0000 0.2009 -0.9796
vn 0.0000 0.0579 -0.9983
vn 0.0000 -0.9976 -0.0696
vn 0.0000 0.5586 -0.8294
vn 0.0000 -0.0815 -0.9967
vn 0.0000 -0.1421 -0.9899
vn 0.0000 -0.9894 -0.1451
vn 0.0000 -0.1568 -0.9876
vn 0.0000 -0.9960 -0.0889
vn 0.0000 -0.1573 -0.9876
vn 0.0000 0.9999 0.0136
vn 0.0000 -0.2516 -0.9678
vn 0.0000 -0.9990 -0.0453
vn 0.0000 -0.5589 -0.8293
vn 0.0000 0.9915 -0.1298
vn 0.0000 -0.9422 -0.3350
vn 0.0000 0.9455 -0.3255
vn 0.0000 -0.9037 -0.4281
vn 0.0000 0.7668 -0.6419
vn 0.9982 0.0352 -0.0496
vn 0.9979 -0.0641 -0.0017
vn 0.9986 -0.0310 -0.0437
vn 0.9980 0.0211 -0.0589
vn 0.9981 -0.0164 -0.0600
vn 0.9975 0.0043 -0.0699
vn 0.9978 -0.0108 -0.0659
vn 0.9979 0.0138 -0.0637
vn 0.9978 -0.0103 -0.0659
vn 0.9980 0.0454 -0.0431
vn 0.9977 -0.0084 -0.0678
vn 0.9982 0.0328 -0.0508
vn 0.9976 -0.0060 -0.0695
vn 0.9980 0.0161 -0.0611
vn 0.9975 0.0000 -0.0710
vn 0.9980 -0.0637 -0.0027
vn 0.9980 -0.0629 -0.0042
vn 0.9946 0.1041 0.0013
vn 0.9981 -0.0621 -0.0053
vn 0.9975 0.0624 -0.0327
vn 0.9982 -0.0599 -0.0083
vn 0.9959 0.0897 -0.0112
vn 0.9984 -0.0528 -0.0178
vn 0.9971 0.0725 -0.0237
vn 0.9985 -0.0492 -0.0221
vn 0.9980 0.0499 -0.0396
vn 0.0000 0.1533 0.9882
vn 0.0000 0.1061 0.9944
vn 0.0000 -0.2205 0.9754
vn 0.0000 0.9997 0.0254
vn 0.0000 0.5963 0.8028
vn 0.0000 0.9992 0.0411
vn 0.0000 -0.7406 0.6720
vn 0.0000 0.9980 0.0632
vn 0.0000 0.2755 0.9613
vn 0.0000 -0.9545 0.2982
vn 0.0000 -0.5597 0.8287
vn 0.0000 0.1639 0.9865
vn 0.0000 -0.7963 0.6049
vn 0.0000 -0.2656 0.9641
vn 0.0000 -0.9999 -0.0123
vn 0.0000 0.9913 0.1319
vn 0.0000 0.9967 0.0808
vn 0.0000 -0.5960 0.8030
vn 0.0000 -0.8941 0.4478
vn 0.0000 0.9517 0.3070
vn 0.0000 -0.3506 0.9365
vn 0.0000 -0.9930 0.1180
vn 0.0000 0.9187 0.3949
vn 0.0000 0.0897 0.9960
vn 0.0000 -0.0638 0.9980
vn 0.0000 0.7681 0.6404
usemtl Holdout
s off
f 8//1 9//1 17//1 18//1
f 34//2 35//2 84//2 83//2
f 28//3 27//3 48//3 49//3
f 213//4 41//4 62//4 212//4
f 35//5 34//5 55//5 56//5
f 13//6 14//6 45//6 44//6
f 12//7 13//7 44//7 43//7
f 11//8 12//8 43//8 42//8
f 3//9 4//9 22//9 23//9
f 10//10 11//10 42//10 16//10
f 27//11 323//11 346//11 48//11
f 9//12 10//12 16//12 17//12
f 30//13 29//13 50//13 51//13
f 7//14 8//14 18//14 19//14
f 26//15 47//15 344//15 321//15
f 41//16 40//16 61//16 62//16
f 40//17 39//17 60//17 61//17
f 32//18 31//18 52//18 53//18
f 39//19 38//19 59//19 60//19
f 31//20 30//20 51//20 52//20
f 38//21 37//21 58//21 59//21
f 2//22 3//22 23//22 24//22
f 37//23 36//23 57//23 58//23
f 29//24 28//24 49//24 50//24
f 36//25 35//25 56//25 57//25
f 14//4 15//4 46//4 45//4
f 4//26 5//26 21//26 22//26
f 33//27 32//27 53//27 54//27
f 5//28 6//28 20//28 21//28
f 2//15 24//15 47//15 26//15
f 34//29 33//29 54//29 55//29
f 6//30 7//30 19//30 20//30
f 8//31 7//31 66//31 67//31
f 27//32 28//32 77//32 76//32
f 35//33 36//33 85//33 84//33
f 9//34 8//34 67//34 68//34
f 36//35 37//35 86//35 85//35
f 10//36 9//36 68//36 69//36
f 37//37 38//37 87//37 86//37
f 11//38 10//38 69//38 70//38
f 38//39 39//39 88//39 87//39
f 12//40 11//40 70//40 71//40
f 39//41 40//41 89//41 88//41
f 13//42 12//42 71//42 72//42
f 40//43 41//43 90//43 89//43
f 14//44 13//44 72//44 73//44
f 321//45 374//45 75//45 26//45
f 217//46 15//46 74//46 218//46
f 15//46 14//46 73//46 74//46
f 28//47 29//47 78//47 77//47
f 29//48 30//48 79//48 78//48
f 3//49 2//49 25//49 1//49
f 323//50 27//50 76//50 376//50
f 30//51 31//51 80//51 79//51
f 4//52 3//52 1//52 63//52
f 31//53 32//53 81//53 80//53
f 5//54 4//54 63//54 64//54
f 32//55 33//55 82//55 81//55
f 6//56 5//56 64//56 65//56
f 26//45 75//45 25//45 2//45
f 33//57 34//57 83//57 82//57
f 7//58 6//58 65//58 66//58
f 236//59 235//59 96//59 97//59
f 245//11 100//11 113//11 247//11
f 228//60 229//60 107//60 106//60
f 222//61 221//61 91//61 92//61
f 230//62 236//62 97//62 98//62
f 244//63 238//63 112//63 111//63
f 229//64 239//64 108//64 107//64
f 237//65 230//65 98//65 99//65
f 238//66 231//66 114//66 112//66
f 223//67 224//67 102//67 101//67
f 239//68 241//68 109//68 108//68
f 231//69 247//69 113//69 114//69
f 224//70 225//70 103//70 102//70
f 241//71 246//71 110//71 109//71
f 234//72 248//72 93//72 94//72
f 225//73 226//73 104//73 103//73
f 246//74 244//74 111//74 110//74
f 233//75 234//75 94//75 95//75
f 226//76 227//76 105//76 104//76
f 235//77 233//77 95//77 96//77
f 227//78 228//78 106//78 105//78
f 251//79 223//79 101//79 219//79
f 249//80 248//80 87//80 88//80
f 222//81 249//81 88//81 89//81
f 130//82 129//82 161//82 162//82
f 116//83 145//83 149//83 117//83
f 116//84 148//84 179//84 145//84
f 131//85 130//85 162//85 163//85
f 117//86 149//86 150//86 118//86
f 138//87 170//87 177//87 146//87
f 132//88 131//88 163//88 164//88
f 118//89 150//89 151//89 119//89
f 146//87 177//87 178//87 147//87
f 133//11 132//11 164//11 165//11
f 119//90 151//90 152//90 120//90
f 147//87 178//87 179//87 148//87
f 133//11 165//11 166//11 134//11
f 120//15 152//15 153//15 121//15
f 134//11 166//11 176//11 144//11
f 126//91 135//91 167//91 158//91
f 122//92 123//92 155//92 154//92
f 135//91 136//91 168//91 167//91
f 123//93 124//93 156//93 155//93
f 136//91 137//91 169//91 168//91
f 124//94 125//94 157//94 156//94
f 139//95 171//95 170//95 138//95
f 121//96 153//96 157//96 125//96
f 140//97 172//97 171//97 139//97
f 137//91 122//91 154//91 169//91
f 141//98 173//98 172//98 140//98
f 127//99 126//99 158//99 159//99
f 142//100 174//100 173//100 141//100
f 128//101 127//101 159//101 160//101
f 143//102 175//102 174//102 142//102
f 129//103 128//103 160//103 161//103
f 144//104 176//104 175//104 143//104
f 92//105 91//105 170//105 171//105
f 172//106 115//106 92//106 171//106
f 93//107 115//107 172//107 173//107
f 129//108 130//108 194//108 193//108
f 117//109 181//109 180//109 116//109
f 148//110 116//110 180//110 211//110
f 130//111 131//111 195//111 194//111
f 118//112 182//112 181//112 117//112
f 146//113 209//113 202//113 138//113
f 131//114 132//114 196//114 195//114
f 119//115 183//115 182//115 118//115
f 147//116 210//116 209//116 146//116
f 132//117 133//117 197//117 196//117
f 120//118 184//118 183//118 119//118
f 148//116 211//116 210//116 147//116
f 134//119 198//119 197//119 133//119
f 121//119 185//119 184//119 120//119
f 144//120 208//120 198//120 134//120
f 135//121 126//121 190//121 199//121
f 123//122 122//122 186//122 187//122
f 136//123 135//123 199//123 200//123
f 124//124 123//124 187//124 188//124
f 137//123 136//123 200//123 201//123
f 125//125 124//125 188//125 189//125
f 138//126 202//126 203//126 139//126
f 125//127 189//127 185//127 121//127
f 139//128 203//128 204//128 140//128
f 122//123 137//123 201//123 186//123
f 140//129 204//129 205//129 141//129
f 126//130 127//130 191//130 190//130
f 141//131 205//131 206//131 142//131
f 127//132 128//132 192//132 191//132
f 142//133 206//133 207//133 143//133
f 128//134 129//134 193//134 192//134
f 143//135 207//135 208//135 144//135
f 174//136 94//136 93//136 173//136
f 95//137 94//137 174//137 175//137
f 176//138 96//138 95//138 175//138
f 97//139 96//139 176//139 166//139
f 221//79 250//79 215//79 91//79
f 41//46 213//46 214//46 90//46
f 217//4 213//4 212//4 216//4
f 177//140 170//140 91//140 215//140
f 15//4 217//4 216//4 46//4
f 250//79 251//79 219//79 215//79
f 213//46 217//46 218//46 214//46
f 178//141 177//141 215//141 219//141
f 179//141 178//141 219//141 101//141
f 145//142 179//142 101//142 102//142
f 149//143 145//143 102//143 103//143
f 150//144 149//144 103//144 104//144
f 104//145 105//145 106//145 150//145
f 106//146 107//146 108//146 150//146
f 108//147 109//147 110//147 150//147
f 214//79 218//79 251//79 250//79
f 90//79 214//79 250//79 221//79
f 92//81 115//81 249//81 222//81
f 115//80 93//80 248//80 249//80
f 218//79 74//79 223//79 251//79
f 70//148 69//148 228//148 227//148
f 76//149 77//149 242//149 232//149
f 84//150 85//150 233//150 235//150
f 77//151 78//151 243//151 242//151
f 71//152 70//152 227//152 226//152
f 78//153 79//153 220//153 243//153
f 85//154 86//154 234//154 233//154
f 65//155 64//155 244//155 246//155
f 72//156 71//156 226//156 225//156
f 86//157 87//157 248//157 234//157
f 66//158 65//158 246//158 241//158
f 73//159 72//159 225//159 224//159
f 1//69 25//69 247//69 231//69
f 80//160 81//160 237//160 240//160
f 79//161 80//161 240//161 220//161
f 67//162 66//162 241//162 239//162
f 376//15 76//15 232//15 412//15
f 74//79 73//79 224//79 223//79
f 63//66 1//66 231//66 238//66
f 81//65 82//65 230//65 237//65
f 374//11 400//11 245//11 75//11
f 68//163 67//163 239//163 229//163
f 64//63 63//63 238//63 244//63
f 82//164 83//164 236//164 230//164
f 89//61 90//61 221//61 222//61
f 69//165 68//165 229//165 228//165
f 75//11 245//11 247//11 25//11
f 83//166 84//166 235//166 236//166
f 151//167 150//167 110//167 111//167
f 152//168 151//168 111//168 112//168
f 98//169 97//169 252//169 253//169
f 99//65 98//65 253//65 254//65
f 253//170 252//170 255//170 256//170
f 254//65 253//65 256//65 257//65
f 255//171 252//171 97//171 166//171
f 257//65 256//65 259//65 260//65
f 256//164 255//164 258//164 259//164
f 258//172 255//172 166//172 165//172
f 260//65 259//65 262//65 263//65
f 259//164 258//164 261//164 262//164
f 261//173 258//173 165//173 164//173
f 162//174 261//174 164//174 163//174
f 261//175 162//175 161//175 160//175
f 261//176 160//176 159//176 158//176
f 262//164 261//164 265//164 266//164
f 263//65 262//65 266//65 267//65
f 261//177 158//177 264//177 265//177
f 268//178 264//178 158//178 167//178
f 269//79 268//79 167//79 168//79
f 270//79 269//79 168//79 169//79
f 271//79 270//79 169//79 154//79
f 264//178 268//178 276//178 272//178
f 268//79 269//79 277//79 276//79
f 265//177 264//177 272//177 273//177
f 269//79 270//79 278//79 277//79
f 266//164 265//164 273//164 274//164
f 267//65 266//65 274//65 275//65
f 270//79 271//79 279//79 278//79
f 280//79 271//79 154//79 155//79
f 281//79 280//79 155//79 156//79
f 282//79 281//79 156//79 157//79
f 283//79 282//79 157//79 153//79
f 284//79 283//79 153//79 152//79
f 279//79 271//79 280//79 285//79
f 286//79 285//79 280//79 281//79
f 287//79 286//79 281//79 282//79
f 284//179 152//179 112//179 114//179
f 294//180 293//180 291//180 288//180
f 293//11 295//11 290//11 291//11
f 292//11 294//11 288//11 289//11
f 287//11 282//11 294//11 292//11
f 283//11 284//11 295//11 293//11
f 282//180 283//180 293//180 294//180
f 113//181 100//181 290//181 295//181
f 114//182 113//182 295//182 284//182
f 303//183 313//183 312//183 304//183
f 331//184 384//184 385//184 332//184
f 325//185 348//185 347//185 324//185
f 393//79 392//79 361//79 338//79
f 332//186 355//186 354//186 331//186
f 308//187 341//187 342//187 309//187
f 307//188 340//188 341//188 308//188
f 306//189 339//189 340//189 307//189
f 298//190 318//190 317//190 299//190
f 305//191 311//191 339//191 306//191
f 324//11 347//11 346//11 323//11
f 304//192 312//192 311//192 305//192
f 327//193 350//193 349//193 326//193
f 302//194 314//194 313//194 303//194
f 322//15 321//15 344//15 345//15
f 338//195 361//195 360//195 337//195
f 337//196 360//196 359//196 336//196
f 329//197 352//197 351//197 328//197
f 336//198 359//198 358//198 335//198
f 328//199 351//199 350//199 327//199
f 335//200 358//200 357//200 334//200
f 297//201 319//201 318//201 298//201
f 334//202 357//202 356//202 333//202
f 326//203 349//203 348//203 325//203
f 333//204 356//204 355//204 332//204
f 309//79 342//79 343//79 310//79
f 299//205 317//205 316//205 300//205
f 330//206 353//206 352//206 329//206
f 300//207 316//207 315//207 301//207
f 297//15 322//15 345//15 319//15
f 331//208 354//208 353//208 330//208
f 301//209 315//209 314//209 302//209
f 303//210 366//210 365//210 302//210
f 324//211 377//211 378//211 325//211
f 332//212 385//212 386//212 333//212
f 304//213 367//213 366//213 303//213
f 333//214 386//214 387//214 334//214
f 305//215 368//215 367//215 304//215
f 334//216 387//216 388//216 335//216
f 306//217 369//217 368//217 305//217
f 335//218 388//218 389//218 336//218
f 307//219 370//219 369//219 306//219
f 336//220 389//220 390//220 337//220
f 308//221 371//221 370//221 307//221
f 337//222 390//222 391//222 338//222
f 309//223 372//223 371//223 308//223
f 321//45 322//45 375//45 374//45
f 396//224 397//224 373//224 310//224
f 310//224 373//224 372//224 309//224
f 325//225 378//225 379//225 326//225
f 326//226 379//226 380//226 327//226
f 298//227 296//227 320//227 297//227
f 323//50 376//50 377//50 324//50
f 327//228 380//228 381//228 328//228
f 299//229 362//229 296//229 298//229
f 328//230 381//230 382//230 329//230
f 300//231 363//231 362//231 299//231
f 329//232 382//232 383//232 330//232
f 301//233 364//233 363//233 300//233
f 322//45 297//45 320//45 375//45
f 330//234 383//234 384//234 331//234
f 302//235 365//235 364//235 301//235
f 429//236 389//236 388//236 428//236
f 401//237 390//237 389//237 429//237
f 338//224 391//224 394//224 393//224
f 396//79 395//79 392//79 393//79
f 310//79 343//79 395//79 396//79
f 393//224 394//224 397//224 396//224
f 394//4 430//4 431//4 397//4
f 391//4 399//4 430//4 394//4
f 397//4 431//4 402//4 373//4
f 369//238 406//238 407//238 368//238
f 377//239 411//239 422//239 378//239
f 385//240 415//240 413//240 386//240
f 378//241 422//241 423//241 379//241
f 370//242 405//242 406//242 369//242
f 379//243 423//243 398//243 380//243
f 386//244 413//244 414//244 387//244
f 364//245 426//245 424//245 363//245
f 371//246 404//246 405//246 370//246
f 387//247 414//247 428//247 388//247
f 365//248 421//248 426//248 364//248
f 372//249 403//249 404//249 371//249
f 296//250 410//250 427//250 320//250
f 381//251 420//251 417//251 382//251
f 380//252 398//252 420//252 381//252
f 366//253 419//253 421//253 365//253
f 376//15 412//15 411//15 377//15
f 373//4 402//4 403//4 372//4
f 362//254 418//254 410//254 296//254
f 382//255 417//255 409//255 383//255
f 374//11 375//11 425//11 400//11
f 367//256 408//256 419//256 366//256
f 363//257 424//257 418//257 362//257
f 383//258 409//258 416//258 384//258
f 390//259 401//259 399//259 391//259
f 368//260 407//260 408//260 367//260
f 375//11 320//11 427//11 425//11
f 384//261 416//261 415//261 385//261
