255 255 255 255 255 255 255 255 255 255 255 255 255 255 255 255
255 255 255 255 255   0 255 255   0   0 255   0   0 255 255 255
255 255 255   0   0 255 165   0   0   0 255   0   0 255 255 255
255 255 255 255 255 255 255 255 255 255 255 255 255 255 255 255
255 255 255 255 255 255 255 255   0 255 255 255 255 255 255 255
255 255 255 255 255 255 255 255   0 255 255 255 255 255 255 255
255 255 255 255 255 255 255 255   0 255 255 255 255 255 255 255
255 255 255 255 255 255 255   0   0   0 255 255 255 255 255 255
255 255 255 255 255 255   0   0   0   0 255 255 255 255 255 255
255 255 255 255 255 255   0   0   0   0 255 255 255 255 255 255
255 255 255 255 255   0   0   0   0 255   0 255 255 255 255 255
255 255 255 255   0   0   0   0   0   0   0  55   0 255 255 255
255 255 255 255   0   0   0   0   0   0 255   0   0 255 255 255
255 255 255 255   0   0   0   0   0   0 255   0   0 255 255 255
255 255   0   0 255 255 255 255 255 255 255 255 255   0   0 255
255 255 255 255 255 255 255 255 255 255 255 255 255 255 255 255
255 255 255 255 255 255 255 255 255 255 255 255 255 255 255 255
255 255 255 255 255   0 255 255   0   0 255   0   0 255 255 255
255 255 255   0   0 255 165   0   0   0 255   0   0 255 255 255
255 255 255 255 255 255 255 255 255 255 255 255 255 255 255 255
255 255 255 255 255 255 255 255   0 255 255 255 255 255 255 255
255 255 255 255 255 255 255 255   0 255 255 255 255 255 255 255
255 255 255 255 255 255 255 255   0 255 255 255 255 255 255 255
255 255 255 255 255 255 255   0   0   0 255 255 255 255 255 255
255 255 255 255 255 255   0   0   0   0 255 255 255 255 255 255
255 255 255 255 255 255   0   0   0   0 255 255 255 255 255 255
255 255 255 255 255   0   0   0   0 255   0 255 255 255 255 255
255 255 255 255   0   0   0   0   0   0   0  55   0 255 255 255
255 255 255 255   0   0   0   0   0   0 255   0   0 255 255 255
255 255 255 255   0   0   0   0   0   0 255   0   0 255 255 255
255 255   0   0 255 255 255 255 255 255 255 255 255   0   0 255
255 255 255 255 255 255 255 255 255 255 255 255 255 255 255 255
255 255 255 255 255 255 255 255 255 255 255 255 255 255 255 255
255 255 255 255 255   0 255 255   0   0 255   0   0 255 255 255
255 255 255   0   0 255 165   0   0   0 255   0   0 255 255 255
255 255 255 255 255 255 255 255 255 255 255 255 255 255 255 255
255 255 255 255 255 255 255 255   0 255 255 255 255 255 255 255
255 255 255 255 255 255 255 255   0 255 255 255 255 255 255 255
255 255 255 255 255 255 255 255   0 255 255 255 255 255 255 255
255 255 255 255 255 255 255   0   0   0 255 255 255 255 255 255
255 255 255 255 255 255   0   0   0   0 255 255 255 255 255 255
255 255 255 255 255 255   0   0   0   0 255 255 255 255 255 255
255 255 255 255 255   0   0   0   0 255   0 255 255 255 255 255
255 255 255 255   0   0   0   0   0   0   0  55   0 255 255 255
255 255 255 255   0   0   0   0   0   0 255   0   0 255 255 255
255 255 255 255   0   0   0   0   0   0 255   0   0 255 255 255
255 255   0   0 255 255 255 255 255 255 255 255 255   0   0 255
255 255 255 255 255 255 255 255 255 255 255 255 255 255 255 255

255 255 255 255 255 255 255 255 255 255 255 255 255 255 255 255
255 255 255 255 255 255 255 255 255 255 255 255 255 255   0 255
255 255 255 255 255 255 255 255 255 255 255 255 255 255   0 255
255   0   0 255 255 255 255 255 255 255 255   0   0   0 255 255
255   0   0 255 255 255 255 255 255 255 255  65   0   0 255 255
255 255 255 255 255 255 255 255 255 255   0   0 255 255 255 255
255   0   0 255 255 255 255   0   0   0 255   0   0   0 255 255
255   0   0 255   0   0   0   0   0   0   0   0   0   0 255 255
255 255   0 255 255 255 255   0   0   0   0   0   0   0 255 255
255 255 157 255 255 255 255 255   0   0   0   0   0   0 255 255
255   0 255 255 255 255 255 255 255 255   0   0   0   0 255 255
255 255   0 255 255 255 255 255 255 255 255   0   0   0 255 255
255 255   0 255 255 255 255 255 255 255 255 255 255 255   0 255
255 255 255 255 255 255 255 255 255 255 255 255 255 255   0 255
255 255 255 255 255 255 255 255 255 255 255 255 255 255 255 255
255 255 255 255 255 255 255 255 255 255 255 255 255 255 255 255
255 255 255 255 255 255 255 255 255 255 255 255 255 255 255 255
255 255 255 255 255 255 255 255 255 255 255 255 255 255   0 255
255 255 255 255 255 255 255 255 255 255 255 255 255 255   0 255
255   0   0 255 255 255 255 255 255 255 255   0   0   0 255 255
255   0   0 255 255 255 255 255 255 255 255  65   0   0 255 255
255 255 255 255 255 255 255 255 255 255   0   0 255 255 255 255
255   0   0 255 255 255 255   0   0   0 255   0   0   0 255 255
255   0   0 255   0   0   0   0   0   0   0   0   0   0 255 255
255 255   0 255 255 255 255   0   0   0   0   0   0   0 255 255
255 255 157 255 255 255 255 255   0   0   0   0   0   0 255 255
255   0 255 255 255 255 255 255 255 255   0   0   0   0 255 255
255 255   0 255 255 255 255 255 255 255 255   0   0   0 255 255
255 255   0 255 255 255 255 255 255 255 255 255 255 255   0 255
255 255 255 255 255 255 255 255 255 255 255 255 255 255   0 255
255 255 255 255 255 255 255 255 255 255 255 255 255 255 255 255
255 255 255 255 255 255 255 255 255 255 255 255 255 255 255 255
255 255 255 255 255 255 255 255 255 255 255 255 255 255 255 255
255 255 255 255 255 255 255 255 255 255 255 255 255 255   0 255
255 255 255 255 255 255 255 255 255 255 255 255 255 255   0 255
255   0   0 255 255 255 255 255 255 255 255   0   0   0 255 255
255   0   0 255 255 255 255 255 255 255 255  65   0   0 255 255
255 255 255 255 255 255 255 255 255 255   0   0 255 255 255 255
255   0   0 255 255 255 255   0   0   0 255   0   0   0 255 255
255   0   0 255   0   0   0   0   0   0   0   0   0   0 255 255
255 255   0 255 255 255 255   0   0   0   0   0   0   0 255 255
255 255 157 255 255 255 255 255   0   0   0   0   0   0 255 255
255   0 255 255 255 255 255 255 255 255   0   0   0   0 255 255
255 255   0 255 255 255 255 255 255 255 255   0   0   0 255 255
255 255   0 255 255 255 255 255 255 255 255 255 255 255   0 255
255 255 255 255 255 255 255 255 255 255 255 255 255 255   0 255
255 255 255 255 255 255 255 255 255 255 255 255 255 255 255 255
255 255 255 255 255 255 255 255 255 255 255 255 255 255 255 255

255 255 255 255 255 255 255 255 255 255 255 255 255 255 255 255
255   0   0 255 255 255 255 255 255 255 255 255   0   0 255 255
255 255 255   0   0 255   0   0   0   0   0   0 255 255 255 255
255 255 255   0   0 255   0   0   0   0   0   0 255 255 255 255
255 255 255   0  55   0   0   0   0   0   0   0 255 255 255 255
255 255 255 255 255   0 255   0   0   0   0 255 255 255 255 255
255 255 255 255 255 255   0   0   0   0 255 255 255 255 255 255
255 255 255 255 255 255   0   0   0   0 255 255 255 255 255 255
255 255 255 255 255 255   0   0   0 255 255 255 255 255 255 255
255 255 255 255 255 255 255   0 255 255 255 255 255 255 255 255
255 255 255 255 255 255 255   0 255 255 255 255 255 255 255 255
255 255 255 255 255 255 255   0 255 255 255 255 255 255 255 255
255 255 255 255 255 255 255 255 255 255 255 255 255 255 255 255
255 255 255   0   0 255   0   0   0 165 255   0   0 255 255 255
255 255 255   0   0 255   0   0 255 255   0 255 255 255 255 255
255 255 255 255 255 255 255 255 255 255 255 255 255 255 255 255
255 255 255 255 255 255 255 255 255 255 255 255 255 255 255 255
255   0   0 255 255 255 255 255 255 255 255 255   0   0 255 255
255 255 255   0   0 255   0   0   0   0   0   0 255 255 255 255
255 255 255   0   0 255   0   0   0   0   0   0 255 255 255 255
255 255 255   0  55   0   0   0   0   0   0   0 255 255 255 255
255 255 255 255 255   0 255   0   0   0   0 255 255 255 255 255
255 255 255 255 255 255   0   0   0   0 255 255 255 255 255 255
255 255 255 255 255 255   0   0   0   0 255 255 255 255 255 255
255 255 255 255 255 255   0   0   0 255 255 255 255 255 255 255
255 255 255 255 255 255 255   0 255 255 255 255 255 255 255 255
255 255 255 255 255 255 255   0 255 255 255 255 255 255 255 255
255 255 255 255 255 255 255   0 255 255 255 255 255 255 255 255
255 255 255 255 255 255 255 255 255 255 255 255 255 255 255 255
255 255 255   0   0 255   0   0   0 165 255   0   0 255 255 255
255 255 255   0   0 255   0   0 255 255   0 255 255 255 255 255
255 255 255 255 255 255 255 255 255 255 255 255 255 255 255 255
255 255 255 255 255 255 255 255 255 255 255 255 255 255 255 255
255   0   0 255 255 255 255 255 255 255 255 255   0   0 255 255
255 255 255   0   0 255   0   0   0   0   0   0 255 255 255 255
255 255 255   0   0 255   0   0   0   0   0   0 255 255 255 255
255 255 255   0  55   0   0   0   0   0   0   0 255 255 255 255
255 255 255 255 255   0 255   0   0   0   0 255 255 255 255 255
255 255 255 255 255 255   0   0   0   0 255 255 255 255 255 255
255 255 255 255 255 255   0   0   0   0 255 255 255 255 255 255
255 255 255 255 255 255   0   0   0 255 255 255 255 255 255 255
255 255 255 255 255 255 255   0 255 255 255 255 255 255 255 255
255 255 255 255 255 255 255   0 255 255 255 255 255 255 255 255
255 255 255 255 255 255 255   0 255 255 255 255 255 255 255 255
255 255 255 255 255 255 255 255 255 255 255 255 255 255 255 255
255 255 255   0   0 255   0   0   0 165 255   0   0 255 255 255
255 255 255   0   0 255   0   0 255 255   0 255 255 255 255 255
255 255 255 255 255 255 255 255 255 255 255 255 255 255 255 255

255 255 255 255 255 255 255 255 255 255 255 255 255 255 255 255
255 255 255 255 255 255 255 255 255 255 255 255 255 255 255 255
255   0 255 255 255 255 255 255 255 255 255 255 255 255 255 255
255   0 255 255 255 255 255 255 255 255 255 255 255   0 255 255
255 255   0   0   0 255 255 255 255 255 255 255 255   0 255 255
255 255   0   0   0   0 255 255 255 255 255 255 255 255   0 255
255 255   0   0   0   0   0   0 255 255 255 255 255 157 255 255
255 255   0   0   0   0   0   0   0 255 255 255 255   0 255 255
255 255   0   0   0   0   0   0   0   0   0   0 255   0   0 255
255 255   0   0   0 255   0   0   0 255 255 255 255   0   0 255
255 255 255 255   0   0 255 255 255 255 255 255 255 255 255 255
255 255   0   0  65 255 255 255 255 255 255 255 255   0   0 255
255 255   0   0   0 255 255 255 255 255 255 255 255   0   0 255
255   0 255 255 255 255 255 255 255 255 255 255 255 255 255 255
255   0 255 255 255 255 255 255 255 255 255 255 255 255 255 255
255 255 255 255 255 255 255 255 255 255 255 255 255 255 255 255
255 255 255 255 255 255 255 255 255 255 255 255 255 255 255 255
255 255 255 255 255 255 255 255 255 255 255 255 255 255 255 255
255   0 255 255 255 255 255 255 255 255 255 255 255 255 255 255
255   0 255 255 255 255 255 255 255 255 255 255 255   0 255 255
255 255   0   0   0 255 255 255 255 255 255 255 255   0 255 255
255 255   0   0   0   0 255 255 255 255 255 255 255 255   0 255
255 255   0   0   0   0   0   0 255 255 255 255 255 157 255 255
255 255   0   0   0   0   0   0   0 255 255 255 255   0 255 255
255 255   0   0   0   0   0   0   0   0   0   0 255   0   0 255
255 255   0   0   0 255   0   0   0 255 255 255 255   0   0 255
255 255 255 255   0   0 255 255 255 255 255 255 255 255 255 255
255 255   0   0  65 255 255 255 255 255 255 255 255   0   0 255
255 255   0   0   0 255 255 255 255 255 255 255 255   0   0 255
255   0 255 255 255 255 255 255 255 255 255 255 255 255 255 255
255   0 255 255 255 255 255 255 255 255 255 255 255 255 255 255
255 255 255 255 255 255 255 255 255 255 255 255 255 255 255 255
255 255 255 255 255 255 255 255 255 255 255 255 255 255 255 255
255 255 255 255 255 255 255 255 255 255 255 255 255 255 255 255
255   0 255 255 255 255 255 255 255 255 255 255 255 255 255 255
255   0 255 255 255 255 255 255 255 255 255 255 255   0 255 255
255 255   0   0   0 255 255 255 255 255 255 255 255   0 255 255
255 255   0   0   0   0 255 255 255 255 255 255 255 255   0 255
255 255   0   0   0   0   0   0 255 255 255 255 255 157 255 255
255 255   0   0   0   0   0   0   0 255 255 255 255   0 255 255
255 255   0   0   0   0   0   0   0   0   0   0 255   0   0 255
255 255   0   0   0 255   0   0   0 255 255 255 255   0   0 255
255 255 255 255   0   0 255 255 255 255 255 255 255 255 255 255
255 255   0   0  65 255 255 255 255 255 255 255 255   0   0 255
255 255   0   0   0 255 255 255 255 255 255 255 255   0   0 255
255   0 255 255 255 255 255 255 255 255 255 255 255 255 255 255
255   0 255 255 255 255 255 255 255 255 255 255 255 255 255 255
255 255 255 255 255 255 255 255 255 255 255 255 255 255 255 255
